-----------------------------
Char004.FBX
-----------------------------



Materiali             -> Textures

Mat-Char004-Hair      -> Char004-Hair-Color.png
Mat-Char004-Head1     -> Char004-Head.png
Mat-Char004-Head2     -> Char004-Head.png



COMBINAZIONE COLORE VESTITI SCARPE
--------------------------------------------------------

1.
Mat-Char004-Skin      -> Char004-Body-1.png
Mat-Char004-Cloth     -> Char004-Body-1.png


2.
Mat-Char004-Skin      -> Char004-Body-2.png
Mat-Char004-Cloth     -> Char004-Body-2.png

3.
Mat-Char004-Skin      -> Char004-Body-3.png
Mat-Char004-Cloth     -> Char004-Body-3.png


4.
Mat-Char004-Skin      -> Char004-Body-4.png
Mat-Char004-Cloth     -> Char004-Body-4.png
